%!PS-Adobe-3.0 EPSF-3.0
%%Creator: (MATLAB, The Mathworks, Inc. Version 9.3.0.713579 \(R2017b\). Operating System: Linux)
%%Title: ./v_stats.eps
%%CreationDate: 2018-11-25T15:48:45
%%Pages: (atend)
%%BoundingBox:    28     3   425   293
%%LanguageLevel: 3
%%EndComments
%%BeginProlog
%%BeginResource: procset (Apache XML Graphics Std ProcSet) 1.2 0
%%Version: 1.2 0
%%Copyright: (Copyright 2001-2003,2010 The Apache Software Foundation. License terms: http://www.apache.org/licenses/LICENSE-2.0)
/bd{bind def}bind def
/ld{load def}bd
/GR/grestore ld
/GS/gsave ld
/RM/rmoveto ld
/C/curveto ld
/t/show ld
/L/lineto ld
/ML/setmiterlimit ld
/CT/concat ld
/f/fill ld
/N/newpath ld
/S/stroke ld
/CC/setcmykcolor ld
/A/ashow ld
/cp/closepath ld
/RC/setrgbcolor ld
/LJ/setlinejoin ld
/GC/setgray ld
/LW/setlinewidth ld
/M/moveto ld
/re {4 2 roll M
1 index 0 rlineto
0 exch rlineto
neg 0 rlineto
cp } bd
/_ctm matrix def
/_tm matrix def
/BT { _ctm currentmatrix pop matrix _tm copy pop 0 0 moveto } bd
/ET { _ctm setmatrix } bd
/iTm { _ctm setmatrix _tm concat } bd
/Tm { _tm astore pop iTm 0 0 moveto } bd
/ux 0.0 def
/uy 0.0 def
/F {
  /Tp exch def
  /Tf exch def
  Tf findfont Tp scalefont setfont
  /cf Tf def  /cs Tp def
} bd
/ULS {currentpoint /uy exch def /ux exch def} bd
/ULE {
  /Tcx currentpoint pop def
  gsave
  newpath
  cf findfont cs scalefont dup
  /FontMatrix get 0 get /Ts exch def /FontInfo get dup
  /UnderlinePosition get Ts mul /To exch def
  /UnderlineThickness get Ts mul /Tt exch def
  ux uy To add moveto  Tcx uy To add lineto
  Tt setlinewidth stroke
  grestore
} bd
/OLE {
  /Tcx currentpoint pop def
  gsave
  newpath
  cf findfont cs scalefont dup
  /FontMatrix get 0 get /Ts exch def /FontInfo get dup
  /UnderlinePosition get Ts mul /To exch def
  /UnderlineThickness get Ts mul /Tt exch def
  ux uy To add cs add moveto Tcx uy To add cs add lineto
  Tt setlinewidth stroke
  grestore
} bd
/SOE {
  /Tcx currentpoint pop def
  gsave
  newpath
  cf findfont cs scalefont dup
  /FontMatrix get 0 get /Ts exch def /FontInfo get dup
  /UnderlinePosition get Ts mul /To exch def
  /UnderlineThickness get Ts mul /Tt exch def
  ux uy To add cs 10 mul 26 idiv add moveto Tcx uy To add cs 10 mul 26 idiv add lineto
  Tt setlinewidth stroke
  grestore
} bd
/QT {
/Y22 exch store
/X22 exch store
/Y21 exch store
/X21 exch store
currentpoint
/Y21 load 2 mul add 3 div exch
/X21 load 2 mul add 3 div exch
/X21 load 2 mul /X22 load add 3 div
/Y21 load 2 mul /Y22 load add 3 div
/X22 load /Y22 load curveto
} bd
/SSPD {
dup length /d exch dict def
{
/v exch def
/k exch def
currentpagedevice k known {
/cpdv currentpagedevice k get def
v cpdv ne {
/upd false def
/nullv v type /nulltype eq def
/nullcpdv cpdv type /nulltype eq def
nullv nullcpdv or
{
/upd true def
} {
/sametype v type cpdv type eq def
sametype {
v type /arraytype eq {
/vlen v length def
/cpdvlen cpdv length def
vlen cpdvlen eq {
0 1 vlen 1 sub {
/i exch def
/obj v i get def
/cpdobj cpdv i get def
obj cpdobj ne {
/upd true def
exit
} if
} for
} {
/upd true def
} ifelse
} {
v type /dicttype eq {
v {
/dv exch def
/dk exch def
/cpddv cpdv dk get def
dv cpddv ne {
/upd true def
exit
} if
} forall
} {
/upd true def
} ifelse
} ifelse
} if
} ifelse
upd true eq {
d k v put
} if
} if
} if
} forall
d length 0 gt {
d setpagedevice
} if
} bd
/RE { % /NewFontName [NewEncodingArray] /FontName RE -
  findfont dup length dict begin
  {
    1 index /FID ne
    {def} {pop pop} ifelse
  } forall
  /Encoding exch def
  /FontName 1 index def
  currentdict definefont pop
  end
} bind def
%%EndResource
%%BeginResource: procset (Apache XML Graphics EPS ProcSet) 1.0 0
%%Version: 1.0 0
%%Copyright: (Copyright 2002-2003 The Apache Software Foundation. License terms: http://www.apache.org/licenses/LICENSE-2.0)
/BeginEPSF { %def
/b4_Inc_state save def         % Save state for cleanup
/dict_count countdictstack def % Count objects on dict stack
/op_count count 1 sub def      % Count objects on operand stack
userdict begin                 % Push userdict on dict stack
/showpage { } def              % Redefine showpage, { } = null proc
0 setgray 0 setlinecap         % Prepare graphics state
1 setlinewidth 0 setlinejoin
10 setmiterlimit [ ] 0 setdash newpath
/languagelevel where           % If level not equal to 1 then
{pop languagelevel             % set strokeadjust and
1 ne                           % overprint to their defaults.
{false setstrokeadjust false setoverprint
} if
} if
} bd
/EndEPSF { %def
count op_count sub {pop} repeat            % Clean up stacks
countdictstack dict_count sub {end} repeat
b4_Inc_state restore
} bd
%%EndResource
%FOPBeginFontDict
%%IncludeResource: font Courier-Oblique
%%IncludeResource: font Courier-BoldOblique
%%IncludeResource: font Courier-Bold
%%IncludeResource: font ZapfDingbats
%%IncludeResource: font Symbol
%%IncludeResource: font Helvetica
%%IncludeResource: font Helvetica-Oblique
%%IncludeResource: font Helvetica-Bold
%%IncludeResource: font Helvetica-BoldOblique
%%IncludeResource: font Times-Roman
%%IncludeResource: font Times-Italic
%%IncludeResource: font Times-Bold
%%IncludeResource: font Times-BoldItalic
%%IncludeResource: font Courier
%FOPEndFontDict
%%BeginResource: encoding WinAnsiEncoding
/WinAnsiEncoding [
/.notdef /.notdef /.notdef /.notdef /.notdef
/.notdef /.notdef /.notdef /.notdef /.notdef
/.notdef /.notdef /.notdef /.notdef /.notdef
/.notdef /.notdef /.notdef /.notdef /.notdef
/.notdef /.notdef /.notdef /.notdef /.notdef
/.notdef /.notdef /.notdef /.notdef /.notdef
/.notdef /.notdef /space /exclam /quotedbl
/numbersign /dollar /percent /ampersand /quotesingle
/parenleft /parenright /asterisk /plus /comma
/hyphen /period /slash /zero /one
/two /three /four /five /six
/seven /eight /nine /colon /semicolon
/less /equal /greater /question /at
/A /B /C /D /E
/F /G /H /I /J
/K /L /M /N /O
/P /Q /R /S /T
/U /V /W /X /Y
/Z /bracketleft /backslash /bracketright /asciicircum
/underscore /quoteleft /a /b /c
/d /e /f /g /h
/i /j /k /l /m
/n /o /p /q /r
/s /t /u /v /w
/x /y /z /braceleft /bar
/braceright /asciitilde /bullet /Euro /bullet
/quotesinglbase /florin /quotedblbase /ellipsis /dagger
/daggerdbl /circumflex /perthousand /Scaron /guilsinglleft
/OE /bullet /Zcaron /bullet /bullet
/quoteleft /quoteright /quotedblleft /quotedblright /bullet
/endash /emdash /asciitilde /trademark /scaron
/guilsinglright /oe /bullet /zcaron /Ydieresis
/space /exclamdown /cent /sterling /currency
/yen /brokenbar /section /dieresis /copyright
/ordfeminine /guillemotleft /logicalnot /sfthyphen /registered
/macron /degree /plusminus /twosuperior /threesuperior
/acute /mu /paragraph /middot /cedilla
/onesuperior /ordmasculine /guillemotright /onequarter /onehalf
/threequarters /questiondown /Agrave /Aacute /Acircumflex
/Atilde /Adieresis /Aring /AE /Ccedilla
/Egrave /Eacute /Ecircumflex /Edieresis /Igrave
/Iacute /Icircumflex /Idieresis /Eth /Ntilde
/Ograve /Oacute /Ocircumflex /Otilde /Odieresis
/multiply /Oslash /Ugrave /Uacute /Ucircumflex
/Udieresis /Yacute /Thorn /germandbls /agrave
/aacute /acircumflex /atilde /adieresis /aring
/ae /ccedilla /egrave /eacute /ecircumflex
/edieresis /igrave /iacute /icircumflex /idieresis
/eth /ntilde /ograve /oacute /ocircumflex
/otilde /odieresis /divide /oslash /ugrave
/uacute /ucircumflex /udieresis /yacute /thorn
/ydieresis
] def
%%EndResource
%FOPBeginFontReencode
/Courier-Oblique findfont
dup length dict begin
  {1 index /FID ne {def} {pop pop} ifelse} forall
  /Encoding WinAnsiEncoding def
  currentdict
end
/Courier-Oblique exch definefont pop
/Courier-BoldOblique findfont
dup length dict begin
  {1 index /FID ne {def} {pop pop} ifelse} forall
  /Encoding WinAnsiEncoding def
  currentdict
end
/Courier-BoldOblique exch definefont pop
/Courier-Bold findfont
dup length dict begin
  {1 index /FID ne {def} {pop pop} ifelse} forall
  /Encoding WinAnsiEncoding def
  currentdict
end
/Courier-Bold exch definefont pop
/Helvetica findfont
dup length dict begin
  {1 index /FID ne {def} {pop pop} ifelse} forall
  /Encoding WinAnsiEncoding def
  currentdict
end
/Helvetica exch definefont pop
/Helvetica-Oblique findfont
dup length dict begin
  {1 index /FID ne {def} {pop pop} ifelse} forall
  /Encoding WinAnsiEncoding def
  currentdict
end
/Helvetica-Oblique exch definefont pop
/Helvetica-Bold findfont
dup length dict begin
  {1 index /FID ne {def} {pop pop} ifelse} forall
  /Encoding WinAnsiEncoding def
  currentdict
end
/Helvetica-Bold exch definefont pop
/Helvetica-BoldOblique findfont
dup length dict begin
  {1 index /FID ne {def} {pop pop} ifelse} forall
  /Encoding WinAnsiEncoding def
  currentdict
end
/Helvetica-BoldOblique exch definefont pop
/Times-Roman findfont
dup length dict begin
  {1 index /FID ne {def} {pop pop} ifelse} forall
  /Encoding WinAnsiEncoding def
  currentdict
end
/Times-Roman exch definefont pop
/Times-Italic findfont
dup length dict begin
  {1 index /FID ne {def} {pop pop} ifelse} forall
  /Encoding WinAnsiEncoding def
  currentdict
end
/Times-Italic exch definefont pop
/Times-Bold findfont
dup length dict begin
  {1 index /FID ne {def} {pop pop} ifelse} forall
  /Encoding WinAnsiEncoding def
  currentdict
end
/Times-Bold exch definefont pop
/Times-BoldItalic findfont
dup length dict begin
  {1 index /FID ne {def} {pop pop} ifelse} forall
  /Encoding WinAnsiEncoding def
  currentdict
end
/Times-BoldItalic exch definefont pop
/Courier findfont
dup length dict begin
  {1 index /FID ne {def} {pop pop} ifelse} forall
  /Encoding WinAnsiEncoding def
  currentdict
end
/Courier exch definefont pop
%FOPEndFontReencode
%%EndProlog
%%Page: 1 1
%%PageBoundingBox: 0 0 454 312
%%BeginPageSetup
[1 0 0 -1 0 312] CT
%%EndPageSetup
GS
[0.74966 0 0 0.74955 0 0.189] CT
1 GC
N
0 0 605 416 re
f
GR
GS
[0.74966 0 0 0.74955 0 0.189] CT
1 GC
N
0 0 605 416 re
f
GR
GS
[0.74966 0 0 0.74955 0 0.189] CT
1 GC
N
79 370 M
548 370 L
548 31 L
79 31 L
cp
f
GR
GS
[0.74966 0 0 0.74955 0 0.189] CT
0.149 GC
2 setlinecap
1 LJ
0.667 LW
N
79 370 M
548 370 L
S
GR
GS
[0.74966 0 0 0.74955 0 0.189] CT
0.149 GC
2 setlinecap
1 LJ
0.667 LW
N
79 31 M
548 31 L
S
GR
GS
[0.74966 0 0 0.74955 0 0.189] CT
0.149 GC
2 setlinecap
1 LJ
0.667 LW
N
79 370 M
79 365.31 L
S
GR
GS
[0.74966 0 0 0.74955 0 0.189] CT
0.149 GC
2 setlinecap
1 LJ
0.667 LW
N
172.8 370 M
172.8 365.31 L
S
GR
GS
[0.74966 0 0 0.74955 0 0.189] CT
0.149 GC
2 setlinecap
1 LJ
0.667 LW
N
266.6 370 M
266.6 365.31 L
S
GR
GS
[0.74966 0 0 0.74955 0 0.189] CT
0.149 GC
2 setlinecap
1 LJ
0.667 LW
N
360.4 370 M
360.4 365.31 L
S
GR
GS
[0.74966 0 0 0.74955 0 0.189] CT
0.149 GC
2 setlinecap
1 LJ
0.667 LW
N
454.2 370 M
454.2 365.31 L
S
GR
GS
[0.74966 0 0 0.74955 0 0.189] CT
0.149 GC
2 setlinecap
1 LJ
0.667 LW
N
548 370 M
548 365.31 L
S
GR
GS
[0.74966 0 0 0.74955 0 0.189] CT
0.149 GC
2 setlinecap
1 LJ
0.667 LW
N
79 31 M
79 35.69 L
S
GR
GS
[0.74966 0 0 0.74955 0 0.189] CT
0.149 GC
2 setlinecap
1 LJ
0.667 LW
N
172.8 31 M
172.8 35.69 L
S
GR
GS
[0.74966 0 0 0.74955 0 0.189] CT
0.149 GC
2 setlinecap
1 LJ
0.667 LW
N
266.6 31 M
266.6 35.69 L
S
GR
GS
[0.74966 0 0 0.74955 0 0.189] CT
0.149 GC
2 setlinecap
1 LJ
0.667 LW
N
360.4 31 M
360.4 35.69 L
S
GR
GS
[0.74966 0 0 0.74955 0 0.189] CT
0.149 GC
2 setlinecap
1 LJ
0.667 LW
N
454.2 31 M
454.2 35.69 L
S
GR
GS
[0.74966 0 0 0.74955 0 0.189] CT
0.149 GC
2 setlinecap
1 LJ
0.667 LW
N
548 31 M
548 35.69 L
S
GR
GS
[0.74966 0 0 0.74955 59.22301 281.51848] CT
0.149 GC
/Helvetica 13.333 F
GS
[1 0 0 1 0 0] CT
-4.5 13 moveto 
1 -1 scale
(0) t 
GR
GR
GS
[0.74966 0 0 0.74955 129.54097 281.51848] CT
0.149 GC
/Helvetica 13.333 F
GS
[1 0 0 1 0 0] CT
-17 13 moveto 
1 -1 scale
(2000) t 
GR
GR
GS
[0.74966 0 0 0.74955 199.85892 281.51848] CT
0.149 GC
/Helvetica 13.333 F
GS
[1 0 0 1 0 0] CT
-17 13 moveto 
1 -1 scale
(4000) t 
GR
GR
GS
[0.74966 0 0 0.74955 270.17687 281.51848] CT
0.149 GC
/Helvetica 13.333 F
GS
[1 0 0 1 0 0] CT
-17 13 moveto 
1 -1 scale
(6000) t 
GR
GR
GS
[0.74966 0 0 0.74955 340.49483 281.51848] CT
0.149 GC
/Helvetica 13.333 F
GS
[1 0 0 1 0 0] CT
-17 13 moveto 
1 -1 scale
(8000) t 
GR
GR
GS
[0.74966 0 0 0.74955 410.81278 281.51848] CT
0.149 GC
/Helvetica 13.333 F
GS
[1 0 0 1 0 0] CT
-21.5 13 moveto 
1 -1 scale
(10000) t 
GR
GR
GS
[0.74966 0 0 0.74955 235.01808 295.26014] CT
0.149 GC
/Helvetica 14.667 F
GS
[1 0 0 1 0 0] CT
-21.5 14 moveto 
1 -1 scale
(Digits) t 
GR
GR
GS
[0.74966 0 0 0.74955 0 0.189] CT
0.149 GC
2 setlinecap
1 LJ
0.667 LW
N
79 370 M
79 31 L
S
GR
GS
[0.74966 0 0 0.74955 0 0.189] CT
0.149 GC
2 setlinecap
1 LJ
0.667 LW
N
548 370 M
548 31 L
S
GR
GS
[0.74966 0 0 0.74955 0 0.189] CT
0.149 GC
2 setlinecap
1 LJ
0.667 LW
N
79 370 M
83.69 370 L
S
GR
GS
[0.74966 0 0 0.74955 0 0.189] CT
0.149 GC
2 setlinecap
1 LJ
0.667 LW
N
79 313.5 M
83.69 313.5 L
S
GR
GS
[0.74966 0 0 0.74955 0 0.189] CT
0.149 GC
2 setlinecap
1 LJ
0.667 LW
N
79 257 M
83.69 257 L
S
GR
GS
[0.74966 0 0 0.74955 0 0.189] CT
0.149 GC
2 setlinecap
1 LJ
0.667 LW
N
79 200.5 M
83.69 200.5 L
S
GR
GS
[0.74966 0 0 0.74955 0 0.189] CT
0.149 GC
2 setlinecap
1 LJ
0.667 LW
N
79 144 M
83.69 144 L
S
GR
GS
[0.74966 0 0 0.74955 0 0.189] CT
0.149 GC
2 setlinecap
1 LJ
0.667 LW
N
79 87.5 M
83.69 87.5 L
S
GR
GS
[0.74966 0 0 0.74955 0 0.189] CT
0.149 GC
2 setlinecap
1 LJ
0.667 LW
N
79 31 M
83.69 31 L
S
GR
GS
[0.74966 0 0 0.74955 0 0.189] CT
0.149 GC
2 setlinecap
1 LJ
0.667 LW
N
548 370 M
543.31 370 L
S
GR
GS
[0.74966 0 0 0.74955 0 0.189] CT
0.149 GC
2 setlinecap
1 LJ
0.667 LW
N
548 313.5 M
543.31 313.5 L
S
GR
GS
[0.74966 0 0 0.74955 0 0.189] CT
0.149 GC
2 setlinecap
1 LJ
0.667 LW
N
548 257 M
543.31 257 L
S
GR
GS
[0.74966 0 0 0.74955 0 0.189] CT
0.149 GC
2 setlinecap
1 LJ
0.667 LW
N
548 200.5 M
543.31 200.5 L
S
GR
GS
[0.74966 0 0 0.74955 0 0.189] CT
0.149 GC
2 setlinecap
1 LJ
0.667 LW
N
548 144 M
543.31 144 L
S
GR
GS
[0.74966 0 0 0.74955 0 0.189] CT
0.149 GC
2 setlinecap
1 LJ
0.667 LW
N
548 87.5 M
543.31 87.5 L
S
GR
GS
[0.74966 0 0 0.74955 0 0.189] CT
0.149 GC
2 setlinecap
1 LJ
0.667 LW
N
548 31 M
543.31 31 L
S
GR
GS
[0.74966 0 0 0.74955 55.22483 277.5209] CT
0.149 GC
/Helvetica 13.333 F
GS
[1 0 0 1 0 0] CT
-9 4.5 moveto 
1 -1 scale
(0) t 
GR
GR
GS
[0.74966 0 0 0.74955 55.22483 235.17157] CT
0.149 GC
/Helvetica 13.333 F
GS
[1 0 0 1 0 0] CT
-9 4.5 moveto 
1 -1 scale
(5) t 
GR
GR
GS
[0.74966 0 0 0.74955 55.22483 192.82224] CT
0.149 GC
/Helvetica 13.333 F
GS
[1 0 0 1 0 0] CT
-17 4.5 moveto 
1 -1 scale
(10) t 
GR
GR
GS
[0.74966 0 0 0.74955 55.22483 150.47291] CT
0.149 GC
/Helvetica 13.333 F
GS
[1 0 0 1 0 0] CT
-17 4.5 moveto 
1 -1 scale
(15) t 
GR
GR
GS
[0.74966 0 0 0.74955 55.22483 108.12357] CT
0.149 GC
/Helvetica 13.333 F
GS
[1 0 0 1 0 0] CT
-17 4.5 moveto 
1 -1 scale
(20) t 
GR
GR
GS
[0.74966 0 0 0.74955 55.22483 65.77424] CT
0.149 GC
/Helvetica 13.333 F
GS
[1 0 0 1 0 0] CT
-17 4.5 moveto 
1 -1 scale
(25) t 
GR
GR
GS
[0.74966 0 0 0.74955 55.22483 23.42491] CT
0.149 GC
/Helvetica 13.333 F
GS
[1 0 0 1 0 0] CT
-17 4.5 moveto 
1 -1 scale
(30) t 
GR
GR
GS
[0 -0.74955 0.74966 0 39.48201 150.47278] CT
0.149 GC
/Helvetica 14.667 F
GS
[1 0 0 1 0 0] CT
-5.5 -4 moveto 
1 -1 scale
(V) t 
GR
GR
GS
[0.74966 0 0 0.74955 0 0.189] CT
0 0.447 0.741 RC
1 LJ
0.667 LW
N
79.469 189.2 M
79.938 313.5 L
80.407 302.2 L
80.876 296.55 L
81.345 324.8 L
81.814 287.133 L
82.283 240.857 L
82.752 254.175 L
83.221 269.556 L
83.69 247.96 L
84.159 242.618 L
84.628 272.067 L
85.097 277.862 L
85.566 273.143 L
86.035 270.56 L
86.504 276.775 L
86.973 260.988 L
87.442 238.167 L
87.911 261.758 L
88.38 278.47 L
88.849 290.362 L
89.318 291.927 L
89.787 305.148 L
90.256 308.792 L
90.725 327.512 L
91.194 339.577 L
91.663 348.237 L
92.132 329.643 L
92.601 324.8 L
93.07 308.227 L
93.539 316.052 L
94.008 323.388 L
94.477 333.018 L
94.946 324.8 L
95.415 323.509 L
95.884 316.011 L
96.353 310.751 L
96.822 286.142 L
97.291 267.431 L
97.76 271.125 L
98.229 280.151 L
98.698 300.048 L
99.167 291.688 L
99.636 295.523 L
100.105 303.707 L
100.574 294.83 L
101.043 291.621 L
101.512 289.487 L
101.981 297.127 L
102.45 294.064 L
102.919 292.008 L
103.388 282.208 L
103.857 285.996 L
104.326 289.644 L
104.795 301.378 L
105.264 298.568 L
105.733 310.526 L
106.202 293.238 L
106.671 287.261 L
107.14 290.147 L
107.609 289.974 L
108.078 294.181 L
108.547 283.546 L
109.016 279.6 L
109.485 276.818 L
109.954 284.736 L
110.423 286.009 L
110.892 305.524 L
111.361 298.925 L
111.83 302.523 L
112.299 307.611 L
112.768 308.478 L
113.237 309.321 L
113.706 312.584 L
114.175 310.637 L
114.644 297.442 L
115.113 295.449 L
115.582 294.377 L
116.051 295.906 L
116.52 292.878 L
116.989 292.714 L
117.458 290.9 L
117.927 286.952 L
118.396 284.443 L
118.865 277.207 L
119.334 273.556 L
119.803 268.69 L
120.272 278.316 L
120.741 275.537 L
121.21 280.353 L
121.679 271.653 L
122.148 277.389 L
122.617 283.002 L
123.086 286.572 L
123.555 294.112 L
124.024 301.965 L
124.493 302.666 L
124.962 304.276 L
125.431 309.733 L
125.9 315.082 L
126.369 314.731 L
126.838 304.637 L
127.307 306.808 L
127.776 308.285 L
128.245 303.707 L
128.714 310.515 L
129.183 307.269 L
129.652 303.037 L
130.121 299.712 L
130.59 302.2 L
131.059 306.476 L
131.528 312.289 L
131.997 317.6 L
132.466 319.447 L
132.935 323.424 L
133.404 325.19 L
133.873 323.448 L
134.342 328.631 L
134.811 330.497 L
135.28 321.598 L
135.749 325.921 L
136.218 324.059 L
136.687 327.74 L
137.156 328.081 L
137.625 330.043 L
138.094 334.127 L
138.563 334.232 L
139.032 332.392 L
139.501 328.479 L
139.97 325.322 L
140.439 327.043 L
140.908 318.979 L
141.377 321.741 L
141.846 324.969 L
142.315 323.126 L
142.784 316.99 L
143.253 315.397 L
143.722 316.939 L
144.191 322.686 L
144.66 318.02 L
145.129 322.235 L
145.598 323.049 L
146.067 329.383 L
146.536 332.804 L
147.005 326.359 L
147.474 327.741 L
147.943 332.18 L
148.412 329.228 L
148.881 330.867 L
149.35 329.772 L
149.819 324.8 L
150.288 326.733 L
150.757 331.152 L
151.226 330.083 L
151.695 334.132 L
152.164 336.1 L
152.633 335.884 L
153.102 340.248 L
153.571 341.288 L
154.04 340.761 L
154.509 342.487 L
154.978 341.401 L
155.447 339.913 L
155.916 341.612 L
156.385 344.661 L
156.854 342.907 L
157.323 339.01 L
157.792 338.118 L
158.261 337.237 L
158.73 334.106 L
159.199 334.58 L
159.668 335.049 L
160.137 335.12 L
160.606 333.372 L
161.075 333.84 L
161.544 334.559 L
162.013 342.931 L
162.482 342.575 L
162.951 339.825 L
163.42 338.988 L
163.889 343.03 L
164.358 344.916 L
164.827 342.46 L
165.296 338.802 L
165.765 341.536 L
166.234 340.474 L
166.703 342.203 L
167.172 346.198 L
167.641 345.965 L
168.11 346.686 L
168.579 350.003 L
169.048 352.579 L
169.517 356.534 L
169.986 357.535 L
170.455 357.251 L
170.924 358.815 L
171.393 356.807 L
171.862 358.928 L
172.331 358.984 L
172.8 358.022 L
173.269 358.306 L
173.738 354.449 L
174.207 353.634 L
174.676 353.715 L
175.145 355.227 L
175.614 352.995 L
176.083 353.186 L
176.552 350.551 L
177.021 350.968 L
177.49 349.014 L
177.959 347.614 L
178.428 345.055 L
178.897 342.944 L
179.366 344.443 L
179.835 344.036 L
180.304 346.04 L
180.773 345.942 L
181.242 346.052 L
181.711 347.194 L
182.18 348.53 L
182.649 346.48 L
183.118 346.687 L
183.587 344.562 L
184.056 344.474 L
184.525 347.099 L
184.994 346.9 L
185.463 345.707 L
185.932 346.211 L
186.401 349.275 L
186.87 351.33 L
187.339 350.237 L
187.808 351.004 L
188.277 348.952 L
188.746 347.497 L
189.215 351.054 L
189.684 351.997 L
190.153 352.74 L
190.622 354.237 L
191.091 351.182 L
191.56 350.79 L
192.029 350.588 L
192.498 350.202 L
192.967 349.074 L
193.436 351.753 L
193.905 352.842 L
194.374 350.615 L
194.843 350.602 L
195.312 347.673 L
195.781 348.852 L
196.25 347.852 L
196.719 346.41 L
197.188 349.642 L
197.657 348.919 L
198.126 347.4 L
198.595 349.97 L
199.064 350.313 L
199.533 349.071 L
200.002 347.75 L
200.471 346.702 L
200.94 346.444 L
201.409 343.417 L
201.878 344.64 L
202.347 342.674 L
202.816 341.836 L
203.285 343.136 L
203.754 343.067 L
204.223 342.406 L
204.692 341.581 L
205.161 342.359 L
205.63 340.285 L
206.099 341.479 L
206.568 340.171 L
207.037 343.675 L
207.506 341.379 L
207.975 338.935 L
208.444 337.82 L
208.913 339.078 L
209.382 339.027 L
209.851 337.518 L
210.32 340.216 L
210.789 337.427 L
211.258 334.577 L
211.727 335.82 L
212.196 339.999 L
212.665 338.439 L
213.134 339.261 L
213.603 339.368 L
214.072 340.887 L
214.541 341.144 L
215.01 338.594 L
215.479 338.003 L
215.948 341.595 L
216.417 342.618 L
216.886 344.018 L
217.355 341.424 L
217.824 343.353 L
218.293 342.454 L
218.762 341.56 L
219.231 335.987 L
219.7 335.497 L
220.169 331.557 L
220.638 336.699 L
221.107 336.734 L
221.576 335.505 L
222.045 337.174 L
222.514 335.435 L
222.983 331.646 L
223.452 331.697 L
223.921 334.162 L
224.39 332.236 L
224.859 333.956 L
225.328 336.897 L
225.797 337.725 L
226.266 338.475 L
226.735 338.503 L
227.204 335.456 L
227.673 334.852 L
228.142 335.176 L
228.611 341.661 L
229.08 341.821 L
229.549 337.332 L
230.018 335.468 L
230.487 338.304 L
230.956 333.938 L
231.425 334.953 L
231.894 333.882 L
232.363 333.646 L
232.832 331.208 L
233.301 330.021 L
233.77 330.005 L
234.239 332.174 L
234.708 331.199 L
235.177 331.858 L
235.646 328.183 L
236.115 329.995 L
236.584 329.71 L
237.053 326.141 L
237.522 322.393 L
237.991 321.6 L
238.46 321.476 L
238.929 323.143 L
239.398 326.518 L
239.867 325.459 L
240.336 325.785 L
240.805 330.63 L
241.274 325.323 L
241.743 322.716 L
242.212 318.566 L
242.681 319.879 L
243.15 313.435 L
243.619 310.248 L
244.088 309.263 L
244.557 312.124 L
245.026 312.415 L
245.495 309.903 L
245.964 312.421 L
246.433 314.608 L
246.902 315.078 L
247.371 312.335 L
247.84 314.191 L
248.309 314.345 L
248.778 318.057 L
249.247 322.372 L
249.716 323.372 L
250.185 322.819 L
250.654 323.442 L
251.123 323.26 L
251.592 324.002 L
252.061 324.126 L
252.53 324.311 L
252.999 322.912 L
253.468 323.889 L
253.937 325.285 L
254.406 326.855 L
254.875 324.499 L
255.344 325.942 L
255.813 325.28 L
256.282 326.115 L
256.751 327.841 L
257.22 327.119 L
257.689 326.876 L
258.158 327.285 L
258.627 328.399 L
259.096 328.567 L
259.565 325.915 L
260.034 325.327 L
260.503 322.756 L
260.972 328.062 L
261.441 327.705 L
261.91 326.77 L
262.379 330.753 L
262.848 329.758 L
263.317 334.001 L
263.786 335.182 L
264.255 336.758 L
264.724 337.127 L
265.193 338.064 L
265.662 337.69 L
266.131 340.716 L
266.6 337.286 L
267.069 338.213 L
267.538 338.461 L
268.007 334.39 L
268.476 333.415 L
268.945 333.617 L
269.414 335.877 L
269.883 335.85 L
270.352 334.881 L
270.821 334.249 L
271.29 334.391 L
271.759 334.093 L
272.228 335.99 L
272.697 337.824 L
273.166 339.648 L
273.635 341.192 L
274.104 338.599 L
274.573 337.807 L
275.042 339.56 L
275.511 340.442 L
275.98 342.342 L
276.449 339.616 L
276.918 339.956 L
277.387 339.332 L
277.856 337.859 L
278.325 336.286 L
278.794 335.888 L
279.263 336.762 L
279.732 335.044 L
280.201 330.068 L
280.67 328.427 L
281.139 328.051 L
281.608 328.2 L
282.077 329.706 L
282.546 330.372 L
283.015 331.45 L
283.484 328.117 L
283.953 331.265 L
284.422 331.198 L
284.891 334.633 L
285.36 333.994 L
285.829 333.717 L
286.298 335.077 L
286.767 335.87 L
287.236 333.504 L
287.705 337.751 L
288.174 340.863 L
288.643 341.282 L
289.112 341.296 L
289.581 341.108 L
290.05 339.113 L
290.519 336.175 L
290.988 333.25 L
291.457 328.642 L
291.926 327.637 L
292.395 329.966 L
292.864 329.607 L
293.333 328.855 L
293.802 330.327 L
294.271 329.379 L
294.74 327.944 L
295.209 326.957 L
295.678 324.751 L
296.147 326.411 L
296.616 326.553 L
297.085 326.744 L
297.554 326.352 L
298.023 323.3 L
298.492 321.082 L
298.961 317.813 L
299.43 319.126 L
299.899 314.532 L
300.368 312.686 L
300.837 309.988 L
301.306 307.731 L
301.775 303.247 L
302.244 303.767 L
302.713 304.806 L
303.182 301.964 L
303.651 303.144 L
304.12 300.317 L
304.589 300.509 L
305.058 298.496 L
305.527 296.258 L
305.996 301.733 L
306.465 297.307 L
306.934 296.387 L
307.403 296.863 L
307.872 297.106 L
308.341 293.835 L
308.81 288.64 L
309.279 282.224 L
309.748 281.024 L
310.217 278.087 L
310.686 277.175 L
311.155 272.067 L
311.624 270.259 L
312.093 269.823 L
312.562 272.566 L
313.031 267.779 L
313.5 258.537 L
313.969 265.436 L
314.438 267.084 L
314.907 269.491 L
315.376 265.071 L
315.845 264.608 L
316.314 263.655 L
316.783 265.469 L
317.252 266.387 L
317.721 260.241 L
318.19 258.462 L
318.659 257.708 L
319.128 253.116 L
319.597 258.234 L
320.066 262.936 L
320.535 264.548 L
321.004 268.475 L
321.473 269.109 L
321.942 268.518 L
322.411 270.543 L
322.88 268.735 L
323.349 266.5 L
323.818 266.525 L
324.287 263.568 L
324.756 261.744 L
325.225 262.338 L
325.694 262.586 L
326.163 261.46 L
326.632 262.95 L
327.101 268.492 L
327.57 265.614 L
328.039 258.575 L
328.508 263.117 L
328.977 260.265 L
329.446 258.1 L
329.915 255.733 L
330.384 252.573 L
330.853 252.497 L
331.322 254.059 L
331.791 254.862 L
332.26 258.758 L
332.729 259.214 L
333.198 257.417 L
333.667 255.127 L
334.136 259.243 L
334.605 259.654 L
335.074 257.124 L
335.543 252.827 L
336.012 258.237 L
336.481 261.652 L
336.95 265.054 L
337.419 268.279 L
337.888 264.042 L
338.357 259.003 L
338.826 261.773 L
339.295 262.619 L
339.764 262.935 L
340.233 263.492 L
340.702 259.228 L
341.171 259.426 L
341.64 261.722 L
342.109 258.813 L
342.578 258.729 L
343.047 261.456 L
343.516 257.962 L
343.985 257.28 L
344.454 257.28 L
344.923 261.026 L
345.392 260.382 L
345.861 262.441 L
346.33 267.666 L
346.799 271.209 L
347.268 268.932 L
347.737 271.791 L
348.206 268.339 L
348.675 267.298 L
349.144 266.809 L
349.613 270.67 L
350.082 275.729 L
350.551 272.535 L
351.02 271.028 L
351.489 268.67 L
351.958 268.649 L
352.427 266.73 L
352.896 269.887 L
353.365 274.578 L
353.834 274.663 L
354.303 276.443 L
354.772 279.715 L
355.241 281.749 L
355.71 278.068 L
356.179 280.212 L
356.648 278.493 L
357.117 281.696 L
357.586 283.937 L
358.055 285.639 L
358.524 287.563 L
358.993 284.294 L
359.462 286.97 L
359.931 281.637 L
360.4 283.178 L
360.869 280.427 L
361.338 278.136 L
361.807 274.878 L
362.276 271.705 L
362.745 269.028 L
363.214 268.225 L
363.683 268.803 L
364.152 264.806 L
364.621 268.356 L
365.09 269.634 L
365.559 267.283 L
366.028 265.9 L
366.497 261.608 L
366.966 256.779 L
367.435 258.433 L
367.904 254.175 L
368.373 256.158 L
368.842 253.818 L
369.311 255.321 L
369.78 258.422 L
370.249 264.533 L
370.718 267.137 L
371.187 270.241 L
371.656 267.431 L
372.125 269.186 L
372.594 267.434 L
373.063 265.038 L
373.532 260.779 L
374.001 261.132 L
374.47 263.457 L
374.939 261.441 L
375.408 262.364 L
375.877 261.57 L
376.346 256.038 L
376.815 258.281 L
377.284 256.929 L
377.753 256.29 L
378.222 248.286 L
378.691 246.814 L
379.16 246.865 L
379.629 250.583 L
380.098 247.883 L
380.567 249.478 L
381.036 252.052 L
381.505 260.714 L
381.974 256.51 L
382.443 257.873 L
382.912 256.756 L
383.381 261.771 L
383.85 261.972 L
384.319 261.096 L
384.788 260.154 L
385.257 258.384 L
385.726 257.484 L
386.195 259.277 L
386.664 262.099 L
387.133 260.921 L
387.602 264.178 L
388.071 268.934 L
388.54 273.368 L
389.009 273.07 L
389.478 273.66 L
389.947 278.748 L
390.416 278.273 L
390.885 278.988 L
391.354 279.193 L
391.823 277.567 L
392.292 276.927 L
392.761 276.83 L
393.23 273.09 L
393.699 273.234 L
394.168 273.109 L
394.637 268.317 L
395.106 270.714 L
395.575 269.689 L
396.044 272.278 L
396.513 271.021 L
396.982 272.3 L
397.451 271.978 L
397.92 270.959 L
398.389 270.142 L
398.858 270.686 L
399.327 272.122 L
399.796 276.197 L
400.265 274.486 L
400.734 272.253 L
401.203 276.475 L
401.672 278.286 L
402.141 277.73 L
402.61 278.552 L
403.079 280.123 L
403.548 280.188 L
404.017 278.1 L
404.486 271.654 L
404.955 270.625 L
405.424 266.384 L
405.893 264.296 L
406.362 263.929 L
406.831 261.882 L
407.3 258.969 L
407.769 254.711 L
408.238 252.589 L
408.707 254.107 L
409.176 257.289 L
409.645 254.788 L
410.114 254.471 L
410.583 255.338 L
411.052 254.351 L
411.521 246.417 L
411.99 246.655 L
412.459 250.516 L
412.928 253.477 L
413.397 255.288 L
413.866 260.292 L
414.335 261.804 L
414.804 261.451 L
415.273 261.161 L
415.742 263.106 L
416.211 263.884 L
416.68 263.058 L
417.149 268.817 L
417.618 274.466 L
418.087 278.193 L
418.556 278.258 L
419.025 278.228 L
419.494 279.6 L
419.963 276.491 L
420.432 278.607 L
420.901 277.585 L
421.37 280.498 L
421.839 278.92 L
422.308 274.197 L
422.777 273.742 L
423.246 273.565 L
423.715 275.203 L
424.184 270.235 L
424.653 266.475 L
425.122 270.26 L
425.591 266.847 L
426.06 268.392 L
426.529 267.827 L
426.998 267.843 L
427.467 268.254 L
427.936 269.637 L
428.405 266.738 L
428.874 264.634 L
429.343 262.476 L
429.812 258.994 L
430.281 259.142 L
430.75 262.725 L
431.219 261.905 L
431.688 262.92 L
432.157 263.393 L
432.626 263.564 L
433.095 264.693 L
433.564 264.713 L
434.033 265.568 L
434.502 263.649 L
434.971 266.29 L
435.44 263.572 L
435.909 260.475 L
436.378 262.813 L
436.847 259.873 L
437.316 255.403 L
437.785 256.764 L
438.254 252.84 L
438.723 251.136 L
439.192 256.853 L
439.661 260.468 L
440.13 261.843 L
440.599 260.195 L
441.068 262.24 L
441.537 262.818 L
442.006 260.183 L
442.475 265.719 L
442.944 267.31 L
443.413 261.45 L
443.882 261.474 L
444.351 257.406 L
444.82 254.682 L
445.289 254.309 L
445.758 247.347 L
446.227 243.03 L
446.696 244.979 L
447.165 243.699 L
447.634 244.751 L
448.103 244.566 L
448.572 246.618 L
449.041 247.605 L
449.51 250.048 L
449.979 249.371 L
450.448 247.783 L
450.917 244.574 L
451.386 244.078 L
451.855 248.187 L
452.324 248.511 L
452.793 252.917 L
453.262 256.235 L
453.731 256.265 L
454.2 259.91 L
454.669 257.226 L
455.138 258.24 L
455.607 259.42 L
456.076 259.333 L
456.545 261.38 L
457.014 262.468 L
457.483 262.097 L
457.952 259.182 L
458.421 262.727 L
458.89 263.278 L
459.359 265.388 L
459.828 268.022 L
460.297 271.816 L
460.766 273.02 L
461.235 273.499 L
461.704 275.861 L
462.173 274.814 L
462.642 274.931 L
463.111 274.081 L
463.58 272.351 L
464.049 269.25 L
464.518 268.163 L
464.987 263.371 L
465.456 262.239 L
465.925 261.931 L
466.394 256.289 L
466.863 257.984 L
467.332 256.454 L
467.801 257.136 L
468.27 257.926 L
468.739 258.251 L
469.208 258.467 L
469.677 260.066 L
470.146 261.851 L
470.615 262.413 L
471.084 260.839 L
471.553 264.155 L
472.022 268.489 L
472.491 267.505 L
472.96 264.775 L
473.429 266.056 L
473.898 263.173 L
474.367 261.343 L
474.836 257.268 L
475.305 257.107 L
475.774 261.488 L
476.243 263.964 L
476.712 262.33 L
477.181 255.855 L
477.65 258.914 L
478.119 259.071 L
478.588 262.226 L
479.057 261.849 L
479.526 259.911 L
479.995 257.608 L
480.464 257.792 L
480.933 256.736 L
481.402 256.183 L
481.871 257.605 L
482.34 258.419 L
482.809 257.262 L
483.278 253.067 L
483.747 254.565 L
484.216 260.27 L
484.685 260.71 L
485.154 264.229 L
485.623 266.905 L
486.092 267.701 L
486.561 267.533 L
487.03 266.248 L
487.499 270.389 L
487.968 268.404 L
488.437 270.41 L
488.906 271.687 L
489.375 269.94 L
489.844 272.221 L
490.313 275.606 L
490.782 275.404 L
491.251 276.078 L
491.72 274.207 L
492.189 274.521 L
492.658 273.476 L
493.127 275.966 L
493.596 273.132 L
494.065 271.173 L
494.534 269.83 L
495.003 272.491 L
495.472 271.889 L
495.941 268.338 L
496.41 268.656 L
496.879 266.892 L
497.348 267.667 L
497.817 270.363 L
498.286 269.109 L
498.755 267.833 L
499.224 269.082 L
499.693 267.532 L
500.162 268.829 L
500.631 266.477 L
501.1 269.43 L
501.569 266.582 L
502.038 266.045 L
502.507 267.987 L
502.976 268.85 L
503.445 268.337 L
503.914 265.556 L
504.383 262.731 L
504.852 266.334 L
505.321 267.492 L
505.79 264.302 L
506.259 266.998 L
506.728 265.673 L
507.197 267.743 L
507.666 264.912 L
508.135 269.597 L
508.604 269.583 L
509.073 267.795 L
509.542 268.719 L
510.011 272.173 L
510.48 273.459 L
510.949 272.582 L
511.418 275.335 L
511.887 273.626 L
512.356 274.366 L
512.825 275.178 L
513.294 275.719 L
513.763 277.089 L
514.232 280.672 L
514.701 279.916 L
515.17 279.43 L
515.639 279.236 L
516.108 279.091 L
516.577 280.133 L
517.046 279.745 L
517.515 282.355 L
517.984 280.204 L
518.453 277.309 L
518.922 276.371 L
519.391 278.108 L
519.86 276.643 L
520.329 278.351 L
520.798 281.687 L
521.267 283.506 L
521.736 282.928 L
522.205 279.935 L
522.674 280.317 L
523.143 281.796 L
523.612 282.318 L
524.081 282.529 L
524.55 283.264 L
525.019 283.616 L
525.488 283.564 L
525.957 283.75 L
526.426 283.13 L
526.895 280.641 L
527.364 284.564 L
527.833 284.252 L
528.302 281.558 L
528.771 282.546 L
529.24 281.295 L
529.709 281.481 L
530.178 280.375 L
530.647 284.153 L
531.116 282.507 L
531.585 284.635 L
532.054 283.601 L
532.523 281.329 L
532.992 284.059 L
533.461 284.778 L
533.93 284.679 L
534.399 285.302 L
534.868 286.436 L
535.337 287.52 L
535.806 285.865 L
536.275 283.958 L
536.744 284.88 L
537.213 284.828 L
537.682 280.963 L
538.151 283.34 L
538.62 279.531 L
539.089 280.153 L
539.558 281.349 L
540.027 278.06 L
540.496 279.462 L
540.965 276.411 L
541.434 278.935 L
541.903 279.875 L
542.372 280.332 L
542.841 277.612 L
543.31 278.984 L
543.779 276.498 L
544.248 276.889 L
544.717 274.343 L
545.186 271.529 L
545.655 275.194 L
546.124 274.88 L
546.593 269.173 L
547.062 272.829 L
547.531 274.804 L
548 272.707 L
S
GR
GS
[0.74966 0 0 0.74955 0 0.189] CT
1 0 0 RC
[10 6] 0 setdash
2 LJ
0.667 LW
N
79 356.983 M
548 356.983 L
S
GR
GS
[0.74966 0 0 0.74955 0 0.189] CT
1 0 0 RC
[1 3] 0 setdash
2 LJ
0.667 LW
N
79 332.426 M
548 332.426 L
S
GR
GS
[0.74966 0 0 0.74955 0 0.189] CT
0 1 0 RC
[1 3] 0 setdash
2 LJ
0.667 LW
N
79 275.726 M
548 275.726 L
S
GR
GS
[0.74966 0 0 0.74955 0 0.189] CT
1 0 0 RC
[1 3] 0 setdash
2 LJ
0.667 LW
N
79 178.816 M
548 178.816 L
S
GR
GS
[0.74966 0 0 0.74955 0 0.189] CT
1 0 0 RC
[10 6] 0 setdash
2 LJ
0.667 LW
N
79 54.988 M
548 54.988 L
S
GR
GS
[0.74966 0 0 0.74955 0 0.189] CT
1 GC
N
535 110 M
535 44 L
453 44 L
453 110 L
cp
f
GR
GS
[0.74966 0 0 0.74955 374.82918 40.34405] CT
/Helvetica 12 F
GS
[1 0 0 1 0 0] CT
0 4.5 moveto 
1 -1 scale
(V) t 
GR
GR
GS
[0.74966 0 0 0.74955 0 0.189] CT
0 0.447 0.741 RC
1 LJ
0.667 LW
N
457 53.573 M
497 53.573 L
S
GR
GS
[0.74966 0 0 0.74955 374.82918 52.05069] CT
/Helvetica 12 F
GS
[1 0 0 1 0 0] CT
0 4.5 moveto 
1 -1 scale
(0.1%) t 
GR
GR
GS
[0.74966 0 0 0.74955 0 0.189] CT
1 0 0 RC
[10 6] 0 setdash
2 LJ
0.667 LW
N
457 69.191 M
497 69.191 L
S
GR
GS
[0.74966 0 0 0.74955 374.82918 63.75733] CT
/Helvetica 12 F
GS
[1 0 0 1 0 0] CT
0 4.5 moveto 
1 -1 scale
(5%) t 
GR
GR
GS
[0.74966 0 0 0.74955 0 0.189] CT
1 0 0 RC
[1 3] 0 setdash
2 LJ
0.667 LW
N
457 84.809 M
497 84.809 L
S
GR
GS
[0.74966 0 0 0.74955 374.82918 75.46398] CT
/Helvetica 12 F
GS
[1 0 0 1 0 0] CT
0 4.5 moveto 
1 -1 scale
(50%) t 
GR
GR
GS
[0.74966 0 0 0.74955 0 0.189] CT
0 1 0 RC
[1 3] 0 setdash
2 LJ
0.667 LW
N
457 100.427 M
497 100.427 L
S
GR
GS
[0.74966 0 0 0.74955 0 0.189] CT
0.149 GC
10.0 ML
0.667 LW
N
453 110 M
453 44 L
535 44 L
535 110 L
cp
S
GR
%%Trailer
%%Pages: 1
%%EOF
